[{
    "id": 1,
    "title": "Give dog a bath",
    "description": "bla",
    "estimatedTime": "Give dog a bath",
    "status": "Give dog a bath",
    "priority": 1

  }, {
    "id": 2,
    "title": "Give dog a bath",
    "description": "bla",
    "estimatedTime": "Give dog a bath",
    "status": "Give dog a bath",
    "priority": 1

  },{
    "id": 3,
    "title": "Give dog a bath",
    "description": "bla",
    "estimatedTime": "Give dog a bath",
    "status": "Give dog a bath",
    "priority": 1

  },{
    "id": 4,
    "title": "Give dog a bath",
    "description": "bla",
    "estimatedTime": "Give dog a bath",
    "status": "Give dog a bath",
    "priority": 1

  },{
    "id": 5,
    "title": "Give dog a bath",
    "description": "bla",
    "estimatedTime": "Give dog a bath",
    "status": "Give dog a bath",
    "priority":1
  }]